transcript
# //  Questa Sim-64
# //  Version 2023.3 linux_x86_64 Jul 17 2023
# //
# //  Copyright 1991-2023 Mentor Graphics Corporation
# //  All Rights Reserved.
# //
# //  QuestaSim and its associated documentation contain trade
# //  secrets and commercial or financial information that are the property of
# //  Mentor Graphics Corporation and are privileged, confidential,
# //  and exempt from disclosure under the Freedom of Information Act,
# //  5 U.S.C. Section 552. Furthermore, this information
# //  is prohibited from disclosure under the Trade Secrets Act,
# //  18 U.S.C. Section 1905.
# //
# Loading project lab2real
# Compile of neuron.sv was successful.
# Compile of neuron_cont.sv was successful.
# Compile of neuron_struct.sv was successful.
# Compile of neuron_tb_depth.sv was successful.
# Compile of neuron_tb_simple.sv was successful.
# Compile of neuron_threshold_pkg.sv was successful.
# Compile of neuron_top.sv was successful.
# Compile of neuron_top_cont.sv was successful.
# Compile of neuron_top_struct.sv was successful.
# Compile of neuron_weight_pkg.sv was successful.
# Compile of tb_neuron_top.sv was successful with warnings.
# Compile of blk_mem_gen_v8_4.v was successful.
# Compile of tb_bram_latency.sv was successful.
# Compile of threshold_bram.v was successful.
# Compile of weight_bram.v was successful.
# 15 compiles, 0 failed with no errors.
vsim work.tb_neuron_top
# vsim work.tb_neuron_top 
# Start time: 17:34:32 on Mar 30,2026
# ** Note: (vsim-3812) Design is being optimized...
# ** Warning: /ecel/UFAD/ca.oeltjen/Desktop/BNN/bnn_fcc_contest/rtl/neuron/tb_neuron_top.sv(159): (vopt-2244) Variable 'w_ptr' is implicitly static. You must either explicitly declare it as static or automatic
# or remove the initialization in the declaration of variable.
# ** Warning: /ecel/UFAD/ca.oeltjen/Desktop/BNN/bnn_fcc_contest/rtl/neuron/tb_neuron_top.sv(160): (vopt-2244) Variable 't_ptr' is implicitly static. You must either explicitly declare it as static or automatic
# or remove the initialization in the declaration of variable.
# ** Note: (vsim-12126) Error and warning message counts have been restored: Errors=0, Warnings=2.
# Loading sv_std.std
# Loading work.tb_neuron_top(fast)
run -all
# Block Memory Generator module tb_neuron_top.dut.neuron_top_struct_inst.weight_bram_inst.inst.native_mem_module.blk_mem_gen_v8_4_5_inst is using a behavioral model for simulation which will not precisely model memory collision behavior.
# Block Memory Generator module tb_neuron_top.dut.neuron_top_struct_inst.threshold_bram_inst.inst.native_mem_module.blk_mem_gen_v8_4_5_inst is using a behavioral model for simulation which will not precisely model memory collision behavior.
# ** Warning: (vsim-7) Failed to open readmem file "weight_bram.mem" in read mode.
# No such file or directory. (errno = ENOENT)    : /ecel/UFAD/ca.oeltjen/Desktop/BNN/bnn_fcc_contest/rtl/neuron/tb_neuron_top.sv(97)
#    Time: 0 ps  Iteration: 0  Instance: /tb_neuron_top
# ** Warning: (vsim-7) Failed to open readmem file "threshold_bram.mem" in read mode.
# No such file or directory. (errno = ENOENT)    : /ecel/UFAD/ca.oeltjen/Desktop/BNN/bnn_fcc_contest/rtl/neuron/tb_neuron_top.sv(98)
#    Time: 0 ps  Iteration: 0  Instance: /tb_neuron_top
# PASS time=105 ns threshold=0 popcount=11 y=1
# PASS time=175 ns threshold=0 popcount=26 y=1
# PASS time=225 ns threshold=0 popcount=9 y=1
# PASS time=295 ns threshold=0 popcount=28 y=1
# PASS time=355 ns threshold=0 popcount=38 y=1
# PASS time=385 ns threshold=0 popcount=14 y=1
# PASS time=445 ns threshold=0 popcount=38 y=1
# PASS time=465 ns threshold=0 popcount=5 y=1
# PASS time=495 ns threshold=0 popcount=18 y=1
# PASS time=535 ns threshold=0 popcount=16 y=1
# PASS time=585 ns threshold=0 popcount=33 y=1
# PASS time=635 ns threshold=0 popcount=24 y=1
# PASS time=665 ns threshold=0 popcount=9 y=1
# PASS time=745 ns threshold=0 popcount=36 y=1
# PASS time=815 ns threshold=0 popcount=28 y=1
# PASS time=855 ns threshold=0 popcount=8 y=1
# PASS time=945 ns threshold=0 popcount=44 y=1
# PASS time=985 ns threshold=0 popcount=23 y=1
# PASS time=1025 ns threshold=0 popcount=9 y=1
# PASS time=1095 ns threshold=0 popcount=42 y=1
# PASS time=1135 ns threshold=0 popcount=22 y=1
# PASS time=1185 ns threshold=0 popcount=41 y=1
# PASS time=1215 ns threshold=0 popcount=10 y=1
# PASS time=1245 ns threshold=0 popcount=21 y=1
# PASS time=1295 ns threshold=0 popcount=11 y=1
# PASS time=1355 ns threshold=0 popcount=23 y=1
# PASS time=1385 ns threshold=0 popcount=15 y=1
# PASS time=1445 ns threshold=0 popcount=24 y=1
# PASS time=1525 ns threshold=0 popcount=35 y=1
# PASS time=1565 ns threshold=0 popcount=9 y=1
# PASS time=1615 ns threshold=0 popcount=13 y=1
# PASS time=1645 ns threshold=0 popcount=9 y=1
# PASS time=1685 ns threshold=0 popcount=21 y=1
# PASS time=1715 ns threshold=0 popcount=20 y=1
# PASS time=1775 ns threshold=0 popcount=42 y=1
# PASS time=1845 ns threshold=0 popcount=42 y=1
# PASS time=1895 ns threshold=0 popcount=8 y=1
# PASS time=1945 ns threshold=0 popcount=32 y=1
# PASS time=1965 ns threshold=0 popcount=7 y=1
# PASS time=2045 ns threshold=0 popcount=35 y=1
# PASS time=2105 ns threshold=0 popcount=22 y=1
# PASS time=2135 ns threshold=0 popcount=17 y=1
# PASS time=2215 ns threshold=0 popcount=38 y=1
# PASS time=2285 ns threshold=0 popcount=20 y=1
# PASS time=2365 ns threshold=0 popcount=34 y=1
# PASS time=2385 ns threshold=0 popcount=8 y=1
# PASS time=2465 ns threshold=0 popcount=21 y=1
# PASS time=2525 ns threshold=0 popcount=33 y=1
# PASS time=2565 ns threshold=0 popcount=22 y=1
# PASS time=2625 ns threshold=0 popcount=32 y=1
# PASS time=2685 ns threshold=0 popcount=34 y=1
# PASS time=2745 ns threshold=0 popcount=24 y=1
# PASS time=2805 ns threshold=0 popcount=24 y=1
# PASS time=2855 ns threshold=0 popcount=35 y=1
# PASS time=2945 ns threshold=0 popcount=42 y=1
# PASS time=3005 ns threshold=0 popcount=32 y=1
# PASS time=3085 ns threshold=0 popcount=29 y=1
# PASS time=3105 ns threshold=0 popcount=11 y=1
# PASS time=3185 ns threshold=0 popcount=41 y=1
# PASS time=3225 ns threshold=0 popcount=19 y=1
# PASS time=3285 ns threshold=0 popcount=20 y=1
# PASS time=3325 ns threshold=0 popcount=25 y=1
# PASS time=3385 ns threshold=0 popcount=18 y=1
# PASS time=3415 ns threshold=0 popcount=18 y=1
# PASS time=3455 ns threshold=0 popcount=21 y=1
# PASS time=3515 ns threshold=0 popcount=29 y=1
# PASS time=3565 ns threshold=0 popcount=24 y=1
# PASS time=3615 ns threshold=0 popcount=27 y=1
# PASS time=3685 ns threshold=0 popcount=26 y=1
# PASS time=3745 ns threshold=0 popcount=15 y=1
# PASS time=3775 ns threshold=0 popcount=15 y=1
# PASS time=3825 ns threshold=0 popcount=9 y=1
# PASS time=3855 ns threshold=0 popcount=14 y=1
# PASS time=3885 ns threshold=0 popcount=14 y=1
# PASS time=3925 ns threshold=0 popcount=23 y=1
# PASS time=3955 ns threshold=0 popcount=23 y=1
# PASS time=3995 ns threshold=0 popcount=27 y=1
# PASS time=4075 ns threshold=0 popcount=30 y=1
# PASS time=4125 ns threshold=0 popcount=6 y=1
# PASS time=4165 ns threshold=0 popcount=4 y=1
# PASS time=4245 ns threshold=0 popcount=34 y=1
# PASS time=4295 ns threshold=0 popcount=4 y=1
# PASS time=4335 ns threshold=0 popcount=6 y=1
# PASS time=4425 ns threshold=0 popcount=35 y=1
# PASS time=4505 ns threshold=0 popcount=34 y=1
# PASS time=4585 ns threshold=0 popcount=45 y=1
# PASS time=4605 ns threshold=0 popcount=7 y=1
# PASS time=4625 ns threshold=0 popcount=9 y=1
# PASS time=4645 ns threshold=0 popcount=9 y=1
# PASS time=4715 ns threshold=0 popcount=32 y=1
# PASS time=4765 ns threshold=0 popcount=11 y=1
# PASS time=4825 ns threshold=0 popcount=39 y=1
# PASS time=4885 ns threshold=0 popcount=16 y=1
# PASS time=4955 ns threshold=0 popcount=25 y=1
# PASS time=5005 ns threshold=0 popcount=12 y=1
# PASS time=5075 ns threshold=0 popcount=29 y=1
# PASS time=5135 ns threshold=0 popcount=21 y=1
# PASS time=5155 ns threshold=0 popcount=7 y=1
# PASS time=5215 ns threshold=0 popcount=26 y=1
# PASS time=5265 ns threshold=0 popcount=22 y=1
# PASS time=5315 ns threshold=0 popcount=5 y=1
# PASS time=5345 ns threshold=0 popcount=12 y=1
# PASS time=5405 ns threshold=0 popcount=19 y=1
# PASS time=5465 ns threshold=0 popcount=28 y=1
# PASS time=5495 ns threshold=0 popcount=20 y=1
# PASS time=5555 ns threshold=0 popcount=38 y=1
# PASS time=5615 ns threshold=0 popcount=38 y=1
# PASS time=5675 ns threshold=0 popcount=37 y=1
# PASS time=5695 ns threshold=0 popcount=7 y=1
# PASS time=5725 ns threshold=0 popcount=9 y=1
# PASS time=5815 ns threshold=0 popcount=32 y=1
# PASS time=5865 ns threshold=0 popcount=18 y=1
# PASS time=5895 ns threshold=0 popcount=17 y=1
# PASS time=5945 ns threshold=0 popcount=26 y=1
# PASS time=6005 ns threshold=0 popcount=38 y=1
# PASS time=6065 ns threshold=0 popcount=45 y=1
# PASS time=6115 ns threshold=0 popcount=28 y=1
# PASS time=6165 ns threshold=0 popcount=29 y=1
# PASS time=6235 ns threshold=0 popcount=33 y=1
# PASS time=6315 ns threshold=0 popcount=41 y=1
# PASS time=6375 ns threshold=0 popcount=24 y=1
# PASS time=6435 ns threshold=0 popcount=25 y=1
# PASS time=6505 ns threshold=0 popcount=25 y=1
# PASS time=6565 ns threshold=0 popcount=23 y=1
# PASS time=6645 ns threshold=0 popcount=29 y=1
# PASS time=6675 ns threshold=0 popcount=16 y=1
# PASS time=6715 ns threshold=0 popcount=11 y=1
# PASS time=6755 ns threshold=0 popcount=7 y=1
# PASS time=6815 ns threshold=0 popcount=24 y=1
# PASS time=6845 ns threshold=0 popcount=9 y=1
# PASS time=6895 ns threshold=0 popcount=8 y=1
# PASS time=6935 ns threshold=0 popcount=9 y=1
# PASS time=6975 ns threshold=0 popcount=23 y=1
# PASS time=7035 ns threshold=0 popcount=19 y=1
# PASS time=7125 ns threshold=0 popcount=41 y=1
# PASS time=7185 ns threshold=0 popcount=22 y=1
# PASS time=7225 ns threshold=0 popcount=25 y=1
# PASS time=7275 ns threshold=0 popcount=16 y=1
# PASS time=7305 ns threshold=0 popcount=9 y=1
# PASS time=7355 ns threshold=0 popcount=11 y=1
# PASS time=7415 ns threshold=0 popcount=17 y=1
# PASS time=7465 ns threshold=0 popcount=28 y=1
# PASS time=7515 ns threshold=0 popcount=17 y=1
# PASS time=7565 ns threshold=0 popcount=37 y=1
# PASS time=7615 ns threshold=0 popcount=31 y=1
# PASS time=7655 ns threshold=0 popcount=8 y=1
# PASS time=7695 ns threshold=0 popcount=22 y=1
# PASS time=7765 ns threshold=0 popcount=32 y=1
# PASS time=7835 ns threshold=0 popcount=41 y=1
# PASS time=7895 ns threshold=0 popcount=25 y=1
# PASS time=7955 ns threshold=0 popcount=44 y=1
# PASS time=8035 ns threshold=0 popcount=32 y=1
# PASS time=8095 ns threshold=0 popcount=46 y=1
# PASS time=8115 ns threshold=0 popcount=10 y=1
# PASS time=8155 ns threshold=0 popcount=18 y=1
# PASS time=8215 ns threshold=0 popcount=28 y=1
# PASS time=8285 ns threshold=0 popcount=40 y=1
# PASS time=8325 ns threshold=0 popcount=14 y=1
# PASS time=8385 ns threshold=0 popcount=44 y=1
# PASS time=8455 ns threshold=0 popcount=41 y=1
# PASS time=8505 ns threshold=0 popcount=16 y=1
# PASS time=8545 ns threshold=0 popcount=21 y=1
# PASS time=8615 ns threshold=0 popcount=27 y=1
# PASS time=8635 ns threshold=0 popcount=10 y=1
# PASS time=8715 ns threshold=0 popcount=30 y=1
# PASS time=8735 ns threshold=0 popcount=9 y=1
# PASS time=8795 ns threshold=0 popcount=41 y=1
# PASS time=8855 ns threshold=0 popcount=22 y=1
# PASS time=8885 ns threshold=0 popcount=7 y=1
# PASS time=8925 ns threshold=0 popcount=22 y=1
# PASS time=8985 ns threshold=0 popcount=51 y=1
# PASS time=9055 ns threshold=0 popcount=26 y=1
# PASS time=9105 ns threshold=0 popcount=10 y=1
# PASS time=9165 ns threshold=0 popcount=16 y=1
# PASS time=9255 ns threshold=0 popcount=41 y=1
# PASS time=9275 ns threshold=0 popcount=4 y=1
# PASS time=9345 ns threshold=0 popcount=33 y=1
# PASS time=9385 ns threshold=0 popcount=16 y=1
# PASS time=9445 ns threshold=0 popcount=41 y=1
# PASS time=9475 ns threshold=0 popcount=21 y=1
# PASS time=9515 ns threshold=0 popcount=9 y=1
# PASS time=9555 ns threshold=0 popcount=4 y=1
# PASS time=9605 ns threshold=0 popcount=38 y=1
# PASS time=9635 ns threshold=0 popcount=11 y=1
# PASS time=9685 ns threshold=0 popcount=19 y=1
# PASS time=9775 ns threshold=0 popcount=43 y=1
# PASS time=9805 ns threshold=0 popcount=9 y=1
# PASS time=9845 ns threshold=0 popcount=16 y=1
# PASS time=9885 ns threshold=0 popcount=8 y=1
# PASS time=9935 ns threshold=0 popcount=27 y=1
# PASS time=9985 ns threshold=0 popcount=3 y=1
# PASS time=10035 ns threshold=0 popcount=26 y=1
# PASS time=10095 ns threshold=0 popcount=38 y=1
# PASS time=10185 ns threshold=0 popcount=44 y=1
# PASS time=10205 ns threshold=0 popcount=9 y=1
# PASS time=10235 ns threshold=0 popcount=10 y=1
# PASS time=10305 ns threshold=0 popcount=40 y=1
# PASS time=10345 ns threshold=0 popcount=29 y=1
# PASS time=10385 ns threshold=0 popcount=20 y=1
# PASS time=10455 ns threshold=0 popcount=36 y=1
# PASS time=10475 ns threshold=0 popcount=7 y=1
# PASS time=10535 ns threshold=0 popcount=34 y=1
# PASS time=10565 ns threshold=0 popcount=12 y=1
# PASS time=10605 ns threshold=0 popcount=20 y=1
# PASS time=10675 ns threshold=0 popcount=32 y=1
# PASS time=10695 ns threshold=0 popcount=7 y=1
# PASS time=10745 ns threshold=0 popcount=3 y=1
# PASS time=10775 ns threshold=0 popcount=12 y=1
# PASS time=10825 ns threshold=0 popcount=8 y=1
# PASS time=10855 ns threshold=0 popcount=5 y=1
# PASS time=10895 ns threshold=0 popcount=9 y=1
# PASS time=10945 ns threshold=0 popcount=39 y=1
# PASS time=10975 ns threshold=0 popcount=10 y=1
# PASS time=11005 ns threshold=0 popcount=9 y=1
# PASS time=11085 ns threshold=0 popcount=40 y=1
# PASS time=11155 ns threshold=0 popcount=41 y=1
# PASS time=11195 ns threshold=0 popcount=16 y=1
# PASS time=11245 ns threshold=0 popcount=21 y=1
# PASS time=11275 ns threshold=0 popcount=16 y=1
# PASS time=11305 ns threshold=0 popcount=17 y=1
# PASS time=11355 ns threshold=0 popcount=27 y=1
# PASS time=11405 ns threshold=0 popcount=37 y=1
# PASS time=11465 ns threshold=0 popcount=31 y=1
# PASS time=11505 ns threshold=0 popcount=25 y=1
# PASS time=11545 ns threshold=0 popcount=24 y=1
# PASS time=11605 ns threshold=0 popcount=45 y=1
# PASS time=11665 ns threshold=0 popcount=28 y=1
# PASS time=11695 ns threshold=0 popcount=14 y=1
# PASS time=11765 ns threshold=0 popcount=36 y=1
# PASS time=11815 ns threshold=0 popcount=31 y=1
# PASS time=11865 ns threshold=0 popcount=33 y=1
# PASS time=11915 ns threshold=0 popcount=37 y=1
# PASS time=12005 ns threshold=0 popcount=45 y=1
# PASS time=12055 ns threshold=0 popcount=29 y=1
# PASS time=12135 ns threshold=0 popcount=31 y=1
# PASS time=12185 ns threshold=0 popcount=38 y=1
# PASS time=12245 ns threshold=0 popcount=37 y=1
# PASS time=12265 ns threshold=0 popcount=8 y=1
# PASS time=12345 ns threshold=0 popcount=34 y=1
# PASS time=12405 ns threshold=0 popcount=35 y=1
# PASS time=12445 ns threshold=0 popcount=20 y=1
# PASS time=12515 ns threshold=0 popcount=30 y=1
# PASS time=12595 ns threshold=0 popcount=39 y=1
# PASS time=12685 ns threshold=0 popcount=44 y=1
# PASS time=12715 ns threshold=0 popcount=10 y=1
# PASS time=12795 ns threshold=0 popcount=44 y=1
# PASS time=12835 ns threshold=0 popcount=18 y=1
# PASS time=12925 ns threshold=0 popcount=47 y=1
# PASS time=12995 ns threshold=0 popcount=33 y=1
# PASS time=13045 ns threshold=0 popcount=35 y=1
# PASS time=13085 ns threshold=0 popcount=15 y=1
# PASS time=13105 ns threshold=0 popcount=10 y=1
# PASS time=13145 ns threshold=0 popcount=12 y=1
# PASS time=13205 ns threshold=0 popcount=32 y=1
# PASS time=13295 ns threshold=0 popcount=52 y=1
# PASS time=13345 ns threshold=0 popcount=36 y=1
# PASS time=13395 ns threshold=0 popcount=34 y=1
# PASS time=13435 ns threshold=0 popcount=32 y=1
# PASS time=13475 ns threshold=0 popcount=26 y=1
# PASS time=13535 ns threshold=0 popcount=21 y=1
# PASS time=13575 ns threshold=0 popcount=23 y=1
# PASS time=13605 ns threshold=0 popcount=8 y=1
# PASS time=13645 ns threshold=0 popcount=25 y=1
# PASS time=13705 ns threshold=0 popcount=35 y=1
# PASS time=13755 ns threshold=0 popcount=17 y=1
# PASS time=13835 ns threshold=0 popcount=33 y=1
# PASS time=13895 ns threshold=0 popcount=50 y=1
# PASS time=13915 ns threshold=0 popcount=7 y=1
# PASS time=13955 ns threshold=0 popcount=20 y=1
# PASS time=14005 ns threshold=0 popcount=33 y=1
# PASS time=14075 ns threshold=0 popcount=35 y=1
# PASS time=14165 ns threshold=0 popcount=42 y=1
# PASS time=14205 ns threshold=0 popcount=29 y=1
# PASS time=14255 ns threshold=0 popcount=32 y=1
# PASS time=14315 ns threshold=0 popcount=40 y=1
# PASS time=14345 ns threshold=0 popcount=10 y=1
# PASS time=14415 ns threshold=0 popcount=45 y=1
# PASS time=14445 ns threshold=0 popcount=13 y=1
# PASS time=14525 ns threshold=0 popcount=31 y=1
# PASS time=14595 ns threshold=0 popcount=43 y=1
# PASS time=14615 ns threshold=0 popcount=7 y=1
# PASS time=14675 ns threshold=0 popcount=45 y=1
# PASS time=14735 ns threshold=0 popcount=42 y=1
# PASS time=14785 ns threshold=0 popcount=11 y=1
# PASS time=14845 ns threshold=0 popcount=16 y=1
# PASS time=14915 ns threshold=0 popcount=23 y=1
# PASS time=15005 ns threshold=0 popcount=43 y=1
# PASS time=15055 ns threshold=0 popcount=18 y=1
# PASS time=15135 ns threshold=0 popcount=54 y=1
# PASS time=15165 ns threshold=0 popcount=13 y=1
# PASS time=15195 ns threshold=0 popcount=15 y=1
# PASS time=15255 ns threshold=0 popcount=21 y=1
# PASS time=15275 ns threshold=0 popcount=10 y=1
# PASS time=15335 ns threshold=0 popcount=19 y=1
# PASS time=15405 ns threshold=0 popcount=38 y=1
# PASS time=15455 ns threshold=0 popcount=18 y=1
# PASS time=15515 ns threshold=0 popcount=43 y=1
# PASS time=15575 ns threshold=0 popcount=14 y=1
# PASS time=15635 ns threshold=0 popcount=19 y=1
# PASS time=15715 ns threshold=0 popcount=35 y=1
# PASS time=15755 ns threshold=0 popcount=17 y=1
# PASS time=15845 ns threshold=0 popcount=43 y=1
# PASS time=15925 ns threshold=0 popcount=35 y=1
# PASS time=15955 ns threshold=0 popcount=4 y=1
# PASS time=16045 ns threshold=0 popcount=41 y=1
# PASS time=16085 ns threshold=0 popcount=25 y=1
# PASS time=16105 ns threshold=0 popcount=7 y=1
# PASS time=16195 ns threshold=0 popcount=43 y=1
# PASS time=16245 ns threshold=0 popcount=33 y=1
# PASS time=16265 ns threshold=0 popcount=8 y=1
# PASS time=16305 ns threshold=0 popcount=21 y=1
# PASS time=16365 ns threshold=0 popcount=39 y=1
# PASS time=16435 ns threshold=0 popcount=37 y=1
# PASS time=16505 ns threshold=0 popcount=46 y=1
# PASS time=16555 ns threshold=0 popcount=24 y=1
# PASS time=16625 ns threshold=0 popcount=30 y=1
# PASS time=16695 ns threshold=0 popcount=42 y=1
# PASS time=16755 ns threshold=0 popcount=31 y=1
# PASS time=16815 ns threshold=0 popcount=12 y=1
# PASS time=16855 ns threshold=0 popcount=7 y=1
# PASS time=16905 ns threshold=0 popcount=13 y=1
# PASS time=16945 ns threshold=0 popcount=23 y=1
# PASS time=17005 ns threshold=0 popcount=28 y=1
# PASS time=17045 ns threshold=0 popcount=9 y=1
# PASS time=17125 ns threshold=0 popcount=34 y=1
# PASS time=17175 ns threshold=0 popcount=30 y=1
# PASS time=17245 ns threshold=0 popcount=38 y=1
# PASS time=17305 ns threshold=0 popcount=33 y=1
# PASS time=17345 ns threshold=0 popcount=7 y=1
# PASS time=17415 ns threshold=0 popcount=28 y=1
# PASS time=17505 ns threshold=0 popcount=37 y=1
# PASS time=17595 ns threshold=0 popcount=49 y=1
# PASS time=17645 ns threshold=0 popcount=29 y=1
# PASS time=17705 ns threshold=0 popcount=22 y=1
# PASS time=17775 ns threshold=0 popcount=23 y=1
# PASS time=17855 ns threshold=0 popcount=40 y=1
# PASS time=17895 ns threshold=0 popcount=24 y=1
# PASS time=17955 ns threshold=0 popcount=18 y=1
# PASS time=18005 ns threshold=0 popcount=27 y=1
# PASS time=18045 ns threshold=0 popcount=8 y=1
# PASS time=18085 ns threshold=0 popcount=21 y=1
# PASS time=18105 ns threshold=0 popcount=11 y=1
# PASS time=18135 ns threshold=0 popcount=16 y=1
# PASS time=18195 ns threshold=0 popcount=34 y=1
# PASS time=18235 ns threshold=0 popcount=10 y=1
# PASS time=18305 ns threshold=0 popcount=27 y=1
# PASS time=18375 ns threshold=0 popcount=49 y=1
# PASS time=18415 ns threshold=0 popcount=24 y=1
# PASS time=18465 ns threshold=0 popcount=23 y=1
# PASS time=18525 ns threshold=0 popcount=21 y=1
# PASS time=18585 ns threshold=0 popcount=37 y=1
# PASS time=18625 ns threshold=0 popcount=34 y=1
# PASS time=18675 ns threshold=0 popcount=15 y=1
# PASS time=18705 ns threshold=0 popcount=7 y=1
# PASS time=18785 ns threshold=0 popcount=30 y=1
# PASS time=18835 ns threshold=0 popcount=26 y=1
# PASS time=18875 ns threshold=0 popcount=25 y=1
# PASS time=18925 ns threshold=0 popcount=27 y=1
# PASS time=19015 ns threshold=0 popcount=44 y=1
# PASS time=19035 ns threshold=0 popcount=13 y=1
# PASS time=19125 ns threshold=0 popcount=37 y=1
# PASS time=19145 ns threshold=0 popcount=7 y=1
# PASS time=19165 ns threshold=0 popcount=9 y=1
# PASS time=19205 ns threshold=0 popcount=33 y=1
# PASS time=19255 ns threshold=0 popcount=5 y=1
# PASS time=19305 ns threshold=0 popcount=7 y=1
# PASS time=19365 ns threshold=0 popcount=36 y=1
# PASS time=19415 ns threshold=0 popcount=33 y=1
# PASS time=19495 ns threshold=0 popcount=37 y=1
# PASS time=19545 ns threshold=0 popcount=20 y=1
# PASS time=19615 ns threshold=0 popcount=45 y=1
# PASS time=19685 ns threshold=0 popcount=20 y=1
# PASS time=19715 ns threshold=0 popcount=7 y=1
# PASS time=19765 ns threshold=0 popcount=32 y=1
# PASS time=19795 ns threshold=0 popcount=15 y=1
# PASS time=19855 ns threshold=0 popcount=21 y=1
# PASS time=19915 ns threshold=0 popcount=24 y=1
# PASS time=19975 ns threshold=0 popcount=39 y=1
# PASS time=20005 ns threshold=0 popcount=18 y=1
# PASS time=20065 ns threshold=0 popcount=15 y=1
# PASS time=20125 ns threshold=0 popcount=14 y=1
# PASS time=20175 ns threshold=0 popcount=28 y=1
# PASS time=20205 ns threshold=0 popcount=12 y=1
# PASS time=20265 ns threshold=0 popcount=38 y=1
# PASS time=20285 ns threshold=0 popcount=5 y=1
# PASS time=20315 ns threshold=0 popcount=10 y=1
# PASS time=20375 ns threshold=0 popcount=41 y=1
# PASS time=20415 ns threshold=0 popcount=22 y=1
# PASS time=20465 ns threshold=0 popcount=28 y=1
# PASS time=20505 ns threshold=0 popcount=8 y=1
# PASS time=20565 ns threshold=0 popcount=38 y=1
# PASS time=20615 ns threshold=0 popcount=16 y=1
# PASS time=20665 ns threshold=0 popcount=17 y=1
# PASS time=20695 ns threshold=0 popcount=14 y=1
# PASS time=20735 ns threshold=0 popcount=28 y=1
# PASS time=20795 ns threshold=0 popcount=41 y=1
# PASS time=20835 ns threshold=0 popcount=10 y=1
# PASS time=20895 ns threshold=0 popcount=32 y=1
# PASS time=20925 ns threshold=0 popcount=17 y=1
# PASS time=20965 ns threshold=0 popcount=22 y=1
# PASS time=21025 ns threshold=0 popcount=43 y=1
# PASS time=21075 ns threshold=0 popcount=12 y=1
# PASS time=21135 ns threshold=0 popcount=37 y=1
# PASS time=21215 ns threshold=0 popcount=30 y=1
# PASS time=21275 ns threshold=0 popcount=32 y=1
# PASS time=21335 ns threshold=0 popcount=25 y=1
# PASS time=21375 ns threshold=0 popcount=21 y=1
# PASS time=21425 ns threshold=0 popcount=16 y=1
# PASS time=21475 ns threshold=0 popcount=35 y=1
# PASS time=21565 ns threshold=0 popcount=33 y=1
# PASS time=21625 ns threshold=0 popcount=36 y=1
# PASS time=21675 ns threshold=0 popcount=25 y=1
# PASS time=21755 ns threshold=0 popcount=31 y=1
# PASS time=21795 ns threshold=0 popcount=21 y=1
# PASS time=21855 ns threshold=0 popcount=25 y=1
# PASS time=21935 ns threshold=0 popcount=31 y=1
# PASS time=21975 ns threshold=0 popcount=20 y=1
# PASS time=22035 ns threshold=0 popcount=29 y=1
# PASS time=22115 ns threshold=0 popcount=29 y=1
# PASS time=22175 ns threshold=0 popcount=38 y=1
# PASS time=22245 ns threshold=0 popcount=26 y=1
# PASS time=22325 ns threshold=0 popcount=26 y=1
# PASS time=22375 ns threshold=0 popcount=30 y=1
# PASS time=22415 ns threshold=0 popcount=6 y=1
# PASS time=22455 ns threshold=0 popcount=19 y=1
# PASS time=22475 ns threshold=0 popcount=9 y=1
# PASS time=22545 ns threshold=0 popcount=36 y=1
# PASS time=22615 ns threshold=0 popcount=40 y=1
# PASS time=22645 ns threshold=0 popcount=17 y=1
# PASS time=22695 ns threshold=0 popcount=24 y=1
# PASS time=22715 ns threshold=0 popcount=8 y=1
# PASS time=22755 ns threshold=0 popcount=10 y=1
# PASS time=22815 ns threshold=0 popcount=42 y=1
# PASS time=22885 ns threshold=0 popcount=20 y=1
# PASS time=22935 ns threshold=0 popcount=22 y=1
# PASS time=22965 ns threshold=0 popcount=17 y=1
# PASS time=23015 ns threshold=0 popcount=39 y=1
# PASS time=23055 ns threshold=0 popcount=21 y=1
# PASS time=23085 ns threshold=0 popcount=8 y=1
# PASS time=23125 ns threshold=0 popcount=30 y=1
# PASS time=23185 ns threshold=0 popcount=22 y=1
# PASS time=23215 ns threshold=0 popcount=19 y=1
# PASS time=23265 ns threshold=0 popcount=28 y=1
# PASS time=23325 ns threshold=0 popcount=45 y=1
# PASS time=23385 ns threshold=0 popcount=17 y=1
# PASS time=23405 ns threshold=0 popcount=9 y=1
# PASS time=23455 ns threshold=0 popcount=28 y=1
# PASS time=23475 ns threshold=0 popcount=7 y=1
# PASS time=23545 ns threshold=0 popcount=42 y=1
# PASS time=23585 ns threshold=0 popcount=10 y=1
# PASS time=23615 ns threshold=0 popcount=17 y=1
# PASS time=23665 ns threshold=0 popcount=33 y=1
# PASS time=23695 ns threshold=0 popcount=3 y=1
# PASS time=23735 ns threshold=0 popcount=19 y=1
# PASS time=23775 ns threshold=0 popcount=18 y=1
# PASS time=23835 ns threshold=0 popcount=30 y=1
# PASS time=23915 ns threshold=0 popcount=32 y=1
# PASS time=23985 ns threshold=0 popcount=38 y=1
# PASS time=24035 ns threshold=0 popcount=17 y=1
# PASS time=24075 ns threshold=0 popcount=23 y=1
# PASS time=24125 ns threshold=0 popcount=8 y=1
# PASS time=24145 ns threshold=0 popcount=5 y=1
# PASS time=24195 ns threshold=0 popcount=30 y=1
# PASS time=24265 ns threshold=0 popcount=41 y=1
# PASS time=24295 ns threshold=0 popcount=13 y=1
# PASS time=24355 ns threshold=0 popcount=35 y=1
# PASS time=24445 ns threshold=0 popcount=40 y=1
# PASS time=24495 ns threshold=0 popcount=7 y=1
# PASS time=24585 ns threshold=0 popcount=39 y=1
# PASS time=24655 ns threshold=0 popcount=26 y=1
# PASS time=24725 ns threshold=0 popcount=32 y=1
# PASS time=24785 ns threshold=0 popcount=25 y=1
# PASS time=24825 ns threshold=0 popcount=18 y=1
# PASS time=24845 ns threshold=0 popcount=7 y=1
# PASS time=24895 ns threshold=0 popcount=17 y=1
# PASS time=24945 ns threshold=0 popcount=5 y=1
# PASS time=24975 ns threshold=0 popcount=22 y=1
# PASS time=25045 ns threshold=0 popcount=28 y=1
# PASS time=25095 ns threshold=0 popcount=8 y=1
# PASS time=25155 ns threshold=0 popcount=19 y=1
# PASS time=25185 ns threshold=0 popcount=15 y=1
# PASS time=25265 ns threshold=0 popcount=47 y=1
# PASS time=25285 ns threshold=0 popcount=10 y=1
# PASS time=25365 ns threshold=0 popcount=35 y=1
# PASS time=25435 ns threshold=0 popcount=20 y=1
# PASS time=25485 ns threshold=0 popcount=31 y=1
# PASS time=25525 ns threshold=0 popcount=14 y=1
# PASS time=25565 ns threshold=0 popcount=20 y=1
# PASS time=25635 ns threshold=0 popcount=29 y=1
# PASS time=25705 ns threshold=0 popcount=26 y=1
# PASS time=25785 ns threshold=0 popcount=33 y=1
# PASS time=25835 ns threshold=0 popcount=12 y=1
# PASS time=25895 ns threshold=0 popcount=44 y=1
# PASS time=25945 ns threshold=0 popcount=36 y=1
# PASS time=25995 ns threshold=0 popcount=25 y=1
# PASS time=26055 ns threshold=0 popcount=38 y=1
# PASS time=26115 ns threshold=0 popcount=45 y=1
# PASS time=26175 ns threshold=0 popcount=32 y=1
# PASS time=26205 ns threshold=0 popcount=7 y=1
# PASS time=26245 ns threshold=0 popcount=20 y=1
